{
    "extensionDescription": {
        "message": "Obfuscate the text in any editable area with the method you chose, so that a program shouldn't recognize what you typed.",
        "description": "Explains what does the extension."
    },
    "menuItemMain": {
        "message": "Obfuscate",
        "description": "Tells the user to obfuscate..."
    },
    "menuItemWithAnotherAlphabet": {
        "message": "With alphabet replacement",
        "description": "...by substituting another alphabet."
    },
    "menuItemWithDiacritic": {
        "message": "With diacritics addition",
        "description": "...by adding diacritics randomly."
    },
    "menuItemWithInvisibleSpace": {
        "message": "With invisible characters addition",
        "description": "...by inserting invisible characters."
    },
    "menuItemWithMultiple": {
        "message": "With several methods",
        "description": "...by using multiple methods."
    },
    "messageSuccess": {
        "message": "Success!",
        "description": "The obfuscation was successful."
    },
    "messageErrorId": {
        "message": "Cannot get the selected element.",
        "description": "The obfuscation was unsuccessful because the selected element is unreachable (for watever reason)."
    },
    "messageErrorIdIframe": {
        "message": "Cannot recover an element from inside an iframe.",
        "description": "The obfuscation was unsuccessful because the selected element is unreachable because it is inside an iframe."
    }
}